Decision Tree Challenge
…
# Show zip code ranking
cat("\nZip Code Ranking (by average price):\n")

Zip Code Ranking (by average price):

print(zipcode_ranking)

# A tibble: 23 × 3
   zipCode avg_price zipcode_rank
     <int>     <dbl>        <int>
 1   50010    98988.            1
 2   50011   107917.            2
 3   50017   110442.            3
 4   50015   125588.            4
 5   50036   130338.            5
 6   50014   133173.            6
 7   50016   136977.            7
 8   50038   143031.            8
 9   50037   147534.            9
10   50039   155411.           10
# ℹ 13 more rows
…
